{
  "name": "jquery.sticky",
  "title": "jQuery Sticky",
  "description": "jQuery plugin to make table headers and any HTML block level element sticky.",
  "keywords": [
    "jquery",
    "sticky",
    "plugins"
  ],
  "version": "1.3.0",
  "author": {
    "name": "Walmik Deshpande",
    "url": "https://github.com/walmik"
  },
  "maintainers": [
    {
      "name": "Walmik Deshpande",
      "url": "https://github.com/walmik"
    }
  ],
  "licenses": [
    {
      "type": "MIT",
      "url": "http://www.opensource.org/licenses/mit-license.php"
    }
  ],
  "bugs": "https://github.com/walmik/jquery.sticky/issues",
  "homepage": "https://github.com/walmik/jquery.sticky",
  "docs": "https://github.com/walmik/jquery.sticky#readme",
  "download": "https://github.com/walmik/jquery.sticky/archive/master.zip",
  "dependencies": {
    "jquery": ">=1.3"
  }
}